{
  "project_info": {
    "project_number": "56529403472",
    "firebase_url": "https://my-uzmobile.firebaseio.com",
    "project_id": "my-uzmobile",
    "storage_bucket": "my-uzmobile.appspot.com"
  },
  "client": [
    {
      "client_info": {
        "mobilesdk_app_id": "1:56529403472:android:2135a7eded110aa2",
        "android_client_info": {
          "package_name": "com.app.uzmobile"
        }
      },
      "oauth_client": [
        {
          "client_id": "56529403472-6c8gsji8nti52qj5onok7dduah4mpust.apps.googleusercontent.com",
          "client_type": 3
        }
      ],
      "api_key": [
        {
          "current_key": "AIzaSyAhJFh0M2cNQWm9-bdVn3UMJbMyLskGins"
        }
      ],
      "services": {
        "analytics_service": {
          "status": 1
        },
        "appinvite_service": {
          "status": 1,
          "other_platform_oauth_client": []
        },
        "ads_service": {
          "status": 2
        }
      }
    }
  ],
  "configuration_version": "1"
}